…
# Print results
if (exists("q1.1")) q1.1
```

    ## # A tibble: 21,597 x 5
    ##    county  state  fips  year   pills
    ##    <chr>   <chr> <int> <int>   <dbl>
    ##  1 AUTAUGA AL     1001  2006 2277140
    ##  2 AUTAUGA AL     1001  2007 2595590
    ##  3 AUTAUGA AL     1001  2008 2817500
    ##  4 AUTAUGA AL     1001  2009 3120850
    ##  5 AUTAUGA AL     1001  2010 3174140
    ##  6 AUTAUGA AL     1001  2011 3525120
    ##  7 AUTAUGA AL     1001  2012 3758130
    ##  8 BALDWIN AL     1003  2006 6353798
    ##  9 BALDWIN AL     1003  2007 7666160
    ## 10 BALDWIN AL     1003  2008 8620950
    ## # ... with 21,587 more rows
…
# Print results
if (exists("q2.1")) q2.1
```

    ## # A tibble: 9,660 x 4
    ##    name                     fips  year population
    ##    <chr>                   <int> <int>      <dbl>
    ##  1 Autauga County, Alabama  1001  2010      54754
    ##  2 Autauga County, Alabama  1001  2011      55208
    ##  3 Autauga County, Alabama  1001  2012      54936
    ##  4 Baldwin County, Alabama  1003  2010     183111
    ##  5 Baldwin County, Alabama  1003  2011     186540
    ##  6 Baldwin County, Alabama  1003  2012     190143
    ##  7 Barbour County, Alabama  1005  2010      27330
    ##  8 Barbour County, Alabama  1005  2011      27350
    ##  9 Barbour County, Alabama  1005  2012      27174
    ## 10 Bibb County, Alabama     1007  2010      22872
    ## # ... with 9,650 more rows
…
# Print results
if (exists("q2.2")) q2.2
```

    ## # A tibble: 12,884 x 4
    ##    name                     fips  year population
    ##    <chr>                   <int> <int>      <dbl>
    ##  1 Autauga County, Alabama  1001  2006      51328
    ##  2 Autauga County, Alabama  1001  2007      52405
    ##  3 Autauga County, Alabama  1001  2008      53277
    ##  4 Autauga County, Alabama  1001  2009      54135
    ##  5 Baldwin County, Alabama  1003  2006     168121
    ##  6 Baldwin County, Alabama  1003  2007     172404
    ##  7 Baldwin County, Alabama  1003  2008     175827
    ##  8 Baldwin County, Alabama  1003  2009     179406
    ##  9 Barbour County, Alabama  1005  2006      27861
    ## 10 Barbour County, Alabama  1005  2007      27757
    ## # ... with 12,874 more rows
…
**q2.3** Combine `q2.1` and `q2.2` to create a single tibble with
population data for all the relevant years. Store the result in `q2.3`
and sort by fips and year.

``` r
q2.3 <- 
  bind_rows(q2.1, q2.2) %>% 
  arrange(fips, year)

# Print results
if (exists("q2.3")) q2.3
```

    ## # A tibble: 22,544 x 4
    ##    name                     fips  year population
    ##    <chr>                   <int> <int>      <dbl>
    ##  1 Autauga County, Alabama  1001  2006      51328
    ##  2 Autauga County, Alabama  1001  2007      52405
    ##  3 Autauga County, Alabama  1001  2008      53277
    ##  4 Autauga County, Alabama  1001  2009      54135
    ##  5 Autauga County, Alabama  1001  2010      54754
    ##  6 Autauga County, Alabama  1001  2011      55208
    ##  7 Autauga County, Alabama  1001  2012      54936
    ##  8 Baldwin County, Alabama  1003  2006     168121
    ##  9 Baldwin County, Alabama  1003  2007     172404
    ## 10 Baldwin County, Alabama  1003  2008     175827
    ## # ... with 22,534 more rows
…
# Print results
if (exists("q2.5")) q2.5
```

    ## # A tibble: 22,001 x 6
    ##    county  state name                     fips  year population
    ##    <chr>   <chr> <chr>                   <int> <int>      <int>
    ##  1 AUTAUGA AL    Autauga County, Alabama  1001  2006      51328
    ##  2 AUTAUGA AL    Autauga County, Alabama  1001  2007      52405
    ##  3 AUTAUGA AL    Autauga County, Alabama  1001  2008      53277
    ##  4 AUTAUGA AL    Autauga County, Alabama  1001  2009      49584
    ##  5 AUTAUGA AL    Autauga County, Alabama  1001  2010      53155
    ##  6 AUTAUGA AL    Autauga County, Alabama  1001  2011      53944
    ##  7 AUTAUGA AL    Autauga County, Alabama  1001  2012      54590
    ##  8 BALDWIN AL    Baldwin County, Alabama  1003  2006     168121
    ##  9 BALDWIN AL    Baldwin County, Alabama  1003  2007     172404
    ## 10 BALDWIN AL    Baldwin County, Alabama  1003  2008     175827
    ## # ... with 21,991 more rows
…
    ## TRUE

**q2.6** Assess the quality of the data in `q2.5`. Then, compare the
Washington Post’s population estimates (`q2.5`) with the Census Bureau’s
(`q2.3`). If they differ, which dataset do you think you should use?

``` r
q2.5 %>% 
  filter_all(any_vars(is.na(.)))
```

    ## # A tibble: 28 x 6
    ##    county                state name   fips  year population
    ##    <chr>                 <chr> <chr> <int> <int>      <int>
    ##  1 PRINCE OF WALES HYDER AK    <NA>   2198  2006       5574
    ##  2 PRINCE OF WALES HYDER AK    <NA>   2198  2007       5457
    ##  3 PRINCE OF WALES HYDER AK    <NA>   2198  2008       5448
    ##  4 PRINCE OF WALES HYDER AK    <NA>   2198  2009         NA
    ##  5 PRINCE OF WALES HYDER AK    <NA>   2198  2010         NA
    ##  6 PRINCE OF WALES HYDER AK    <NA>   2198  2011         NA
    ##  7 PRINCE OF WALES HYDER AK    <NA>   2198  2012         NA
    ##  8 SKAGWAY HOONAH ANGOON AK    <NA>   2232  2006        946
    ##  9 SKAGWAY HOONAH ANGOON AK    <NA>   2232  2007        955
    ## 10 SKAGWAY HOONAH ANGOON AK    <NA>   2232  2008        967
    ## # ... with 18 more rows
…
# Print results
if (exists("q3")) q3
```

    ## # A tibble: 21,002 x 8
    ##    county  state name              fips  year  pills population pills_per_person
    ##    <chr>   <chr> <chr>            <int> <int>  <dbl>      <dbl>            <dbl>
    ##  1 AUTAUGA AL    Autauga County,~  1001  2006 2.28e6      51328             44.4
    ##  2 AUTAUGA AL    Autauga County,~  1001  2007 2.60e6      52405             49.5
    ##  3 AUTAUGA AL    Autauga County,~  1001  2008 2.82e6      53277             52.9
    ##  4 AUTAUGA AL    Autauga County,~  1001  2009 3.12e6      54135             57.6
    ##  5 AUTAUGA AL    Autauga County,~  1001  2010 3.17e6      54754             58.0
    ##  6 AUTAUGA AL    Autauga County,~  1001  2011 3.53e6      55208             63.9
    ##  7 AUTAUGA AL    Autauga County,~  1001  2012 3.76e6      54936             68.4
    ##  8 BALDWIN AL    Baldwin County,~  1003  2006 6.35e6     168121             37.8
    ##  9 BALDWIN AL    Baldwin County,~  1003  2007 7.67e6     172404             44.5
    ## 10 BALDWIN AL    Baldwin County,~  1003  2008 8.62e6     175827             49.0
    ## # ... with 20,992 more rows
…
